{
    "parent": "tardis:block/t_wall_inventory",
    "textures": {
         "up": "tardis:block/alabaster/alabaster_pillar_top",
         "wall": "tardis:block/alabaster/alabaster_pillar",
         "top":"tardis:block/alabaster/alabaster"
    }
}
    