{
	"credit": "Made with Blockbench",
	"texture_size": [128, 128],
	"textures": {
		"0": "tardis:item/artron/tier_1",
		"particle": "tardis:item/artron/tier_1"
	},
	"elements": [
		{
			"from": [3.04289, 0, 1.79289],
			"to": [13.04289, 3, 2.79289],
			"rotation": {"angle": -45, "axis": "x", "origin": [8.04289, 1.5, 2.29289]},
			"faces": {
				"north": {"uv": [3.375, 2.625, 4.625, 3], "texture": "#0"},
				"east": {"uv": [3.125, 1.75, 3.25, 2.125], "texture": "#0"},
				"south": {"uv": [3.375, 3, 4.625, 3.375], "texture": "#0"},
				"west": {"uv": [3.125, 2.125, 3.25, 2.5], "texture": "#0"},
				"up": {"uv": [5.5, 4.25, 4.25, 4.125], "texture": "#0"},
				"down": {"uv": [7.125, 2.875, 5.875, 3], "texture": "#0"}
			}
		},
		{
			"from": [1.83579, 0, 3],
			"to": [2.83579, 3, 13],
			"rotation": {"angle": 45, "axis": "z", "origin": [2.33579, 1.5, 8]},
			"faces": {
				"north": {"uv": [3.25, 1.75, 3.375, 2.125], "texture": "#0"},
				"east": {"uv": [3, 4.25, 4.25, 4.625], "texture": "#0"},
				"south": {"uv": [3.25, 2.125, 3.375, 2.5], "texture": "#0"},
				"west": {"uv": [4.25, 4.25, 5.5, 4.625], "texture": "#0"},
				"up": {"uv": [3.625, 7.5, 3.5, 6.25], "texture": "#0"},
				"down": {"uv": [3.75, 6.25, 3.625, 7.5], "texture": "#0"}
			}
		},
		{
			"from": [13.17678, 0.17678, 3],
			"to": [14.17678, 3.17678, 13],
			"rotation": {"angle": -45, "axis": "z", "origin": [13.5, 1.5, 8]},
			"faces": {
				"north": {"uv": [2.25, 3.75, 2.375, 4.125], "texture": "#0"},
				"east": {"uv": [4.25, 0, 5.5, 0.375], "texture": "#0"},
				"south": {"uv": [2.375, 3.75, 2.5, 4.125], "texture": "#0"},
				"west": {"uv": [4.25, 0.375, 5.5, 0.75], "texture": "#0"},
				"up": {"uv": [3.875, 7.5, 3.75, 6.25], "texture": "#0"},
				"down": {"uv": [4, 6.25, 3.875, 7.5], "texture": "#0"}
			}
		},
		{
			"from": [3.04289, 0, 13.20711],
			"to": [13.04289, 3, 14.20711],
			"rotation": {"angle": 45, "axis": "x", "origin": [8.04289, 1.5, 13.70711]},
			"faces": {
				"north": {"uv": [4.25, 0.75, 5.5, 1.125], "texture": "#0"},
				"east": {"uv": [1.25, 5.625, 1.375, 6], "texture": "#0"},
				"south": {"uv": [4.25, 1.125, 5.5, 1.5], "texture": "#0"},
				"west": {"uv": [1.375, 5.625, 1.5, 6], "texture": "#0"},
				"up": {"uv": [5.25, 6.375, 4, 6.25], "texture": "#0"},
				"down": {"uv": [6.5, 6.25, 5.25, 6.375], "texture": "#0"}
			}
		},
		{
			"from": [3.04289, 16.17157, 1.79289],
			"to": [13.04289, 19.17157, 2.79289],
			"rotation": {"angle": 45, "axis": "x", "origin": [8.04289, 17.67157, 2.29289]},
			"faces": {
				"north": {"uv": [4.25, 1.5, 5.5, 1.875], "texture": "#0"},
				"east": {"uv": [1.5, 5.625, 1.625, 6], "texture": "#0"},
				"south": {"uv": [4.25, 1.875, 5.5, 2.25], "texture": "#0"},
				"west": {"uv": [1.625, 5.625, 1.75, 6], "texture": "#0"},
				"up": {"uv": [7.5, 5.125, 6.25, 5], "texture": "#0"},
				"down": {"uv": [7.5, 5.125, 6.25, 5.25], "texture": "#0"}
			}
		},
		{
			"from": [1.83579, 16.17157, 3],
			"to": [2.83579, 19.17157, 13],
			"rotation": {"angle": -45, "axis": "z", "origin": [2.33579, 17.67157, 8]},
			"faces": {
				"north": {"uv": [1.75, 5.625, 1.875, 6], "texture": "#0"},
				"east": {"uv": [4.25, 2.25, 5.5, 2.625], "texture": "#0"},
				"south": {"uv": [1.875, 5.625, 2, 6], "texture": "#0"},
				"west": {"uv": [4.25, 3.375, 5.5, 3.75], "texture": "#0"},
				"up": {"uv": [0.125, 7.625, 0, 6.375], "texture": "#0"},
				"down": {"uv": [0.25, 6.375, 0.125, 7.625], "texture": "#0"}
			}
		},
		{
			"from": [13.25, 16.17157, 3],
			"to": [14.25, 19.17157, 13],
			"rotation": {"angle": 45, "axis": "z", "origin": [13.75, 17.67157, 8]},
			"faces": {
				"north": {"uv": [2, 5.625, 2.125, 6], "texture": "#0"},
				"east": {"uv": [4.25, 3.75, 5.5, 4.125], "texture": "#0"},
				"south": {"uv": [2.125, 5.625, 2.25, 6], "texture": "#0"},
				"west": {"uv": [3, 4.625, 4.25, 5], "texture": "#0"},
				"up": {"uv": [0.375, 7.625, 0.25, 6.375], "texture": "#0"},
				"down": {"uv": [0.5, 6.375, 0.375, 7.625], "texture": "#0"}
			}
		},
		{
			"from": [3.04289, 10.6066, 26.64214],
			"to": [13.04289, 13.6066, 27.64214],
			"rotation": {"angle": -45, "axis": "x", "origin": [8.04289, -1.32843, 13.70711]},
			"faces": {
				"north": {"uv": [4.25, 4.625, 5.5, 5], "texture": "#0"},
				"east": {"uv": [6.375, 3, 6.5, 3.375], "texture": "#0"},
				"south": {"uv": [4.625, 2.625, 5.875, 3], "texture": "#0"},
				"west": {"uv": [6.375, 3.375, 6.5, 3.75], "texture": "#0"},
				"up": {"uv": [7.5, 5.375, 6.25, 5.25], "texture": "#0"},
				"down": {"uv": [7.5, 5.375, 6.25, 5.5], "texture": "#0"}
			}
		},
		{
			"from": [1.83579, 2.21447, 0.79289],
			"to": [2.83579, 16.96447, 3.79289],
			"rotation": {"angle": -45, "axis": "y", "origin": [2.33579, 9.58947, 2.29289]},
			"faces": {
				"north": {"uv": [2.5, 6.125, 2.625, 8], "texture": "#0"},
				"east": {"uv": [0, 3.75, 0.375, 5.625], "texture": "#0"},
				"south": {"uv": [2.625, 6.125, 2.75, 8], "texture": "#0"},
				"west": {"uv": [0.375, 3.75, 0.75, 5.625], "texture": "#0"},
				"up": {"uv": [6.875, 0.75, 6.5, 0.625], "texture": "#0"},
				"down": {"uv": [6.875, 0.75, 6.5, 0.875], "texture": "#0"}
			}
		},
		{
			"from": [18.92767, 2.21447, -0.08579],
			"to": [19.92767, 16.96447, 2.91421],
			"rotation": {"angle": -45, "axis": "y", "origin": [1.75, 9.58947, 0.70711]},
			"faces": {
				"north": {"uv": [2.75, 6.125, 2.875, 8], "texture": "#0"},
				"east": {"uv": [0.75, 3.75, 1.125, 5.625], "texture": "#0"},
				"south": {"uv": [2.875, 6.125, 3, 8], "texture": "#0"},
				"west": {"uv": [1.125, 3.75, 1.5, 5.625], "texture": "#0"},
				"up": {"uv": [6.875, 1, 6.5, 0.875], "texture": "#0"},
				"down": {"uv": [6.875, 1, 6.5, 1.125], "texture": "#0"}
			}
		},
		{
			"from": [-6.22965, 2.21447, 8.85833],
			"to": [-5.22965, 16.96447, 11.85833],
			"rotation": {"angle": 45, "axis": "y", "origin": [2.33579, 9.58947, 2.29289]},
			"faces": {
				"north": {"uv": [3, 6.25, 3.125, 8.125], "texture": "#0"},
				"east": {"uv": [1.5, 3.75, 1.875, 5.625], "texture": "#0"},
				"south": {"uv": [3.125, 6.25, 3.25, 8.125], "texture": "#0"},
				"west": {"uv": [1.875, 3.75, 2.25, 5.625], "texture": "#0"},
				"up": {"uv": [6.875, 1.25, 6.5, 1.125], "texture": "#0"},
				"down": {"uv": [6.875, 1.25, 6.5, 1.375], "texture": "#0"}
			}
		},
		{
			"from": [10.27124, 2.21447, 8.67175],
			"to": [11.27124, 16.96447, 11.67175],
			"rotation": {"angle": 45, "axis": "y", "origin": [2.75, 9.58947, 2.63664]},
			"faces": {
				"north": {"uv": [3.25, 6.25, 3.375, 8.125], "texture": "#0"},
				"east": {"uv": [2.25, 4.25, 2.625, 6.125], "texture": "#0"},
				"south": {"uv": [3.375, 6.25, 3.5, 8.125], "texture": "#0"},
				"west": {"uv": [2.625, 4.25, 3, 6.125], "texture": "#0"},
				"up": {"uv": [6.875, 1.5, 6.5, 1.375], "texture": "#0"},
				"down": {"uv": [6.875, 1.5, 6.5, 1.625], "texture": "#0"}
			}
		},
		{
			"from": [3, 17.75, 3],
			"to": [13, 18.75, 13],
			"faces": {
				"north": {"uv": [6.25, 5.5, 7.5, 5.625], "texture": "#0"},
				"east": {"uv": [6.25, 5.625, 7.5, 5.75], "texture": "#0"},
				"south": {"uv": [0.5, 6.375, 1.75, 6.5], "texture": "#0"},
				"west": {"uv": [4, 6.375, 5.25, 6.5], "texture": "#0"},
				"up": {"uv": [1.25, 1.25, 0, 0], "texture": "#0"},
				"down": {"uv": [1.25, 1.25, 0, 2.5], "texture": "#0"}
			}
		},
		{
			"from": [3, 0.5, 3],
			"to": [13, 1.5, 13],
			"faces": {
				"north": {"uv": [5.25, 6.375, 6.5, 6.5], "texture": "#0"},
				"east": {"uv": [6.375, 0, 7.625, 0.125], "texture": "#0"},
				"south": {"uv": [6.375, 0.125, 7.625, 0.25], "texture": "#0"},
				"west": {"uv": [6.375, 0.25, 7.625, 0.375], "texture": "#0"},
				"up": {"uv": [2.5, 2.5, 1.25, 1.25], "texture": "#0"},
				"down": {"uv": [2.5, 0, 1.25, 1.25], "texture": "#0"}
			}
		},
		{
			"from": [3.04289, 14.96447, 0.87868],
			"to": [13.04289, 16.96447, 1.87868],
			"rotation": {"angle": 0, "axis": "y", "origin": [8.04289, -2.78553, 7.87868]},
			"faces": {
				"north": {"uv": [5.5, 3.75, 6.75, 4], "texture": "#0"},
				"east": {"uv": [1.625, 6.5, 1.75, 6.75], "texture": "#0"},
				"south": {"uv": [5.5, 4, 6.75, 4.25], "texture": "#0"},
				"west": {"uv": [4, 6.5, 4.125, 6.75], "texture": "#0"},
				"up": {"uv": [7.625, 0.5, 6.375, 0.375], "texture": "#0"},
				"down": {"uv": [7.625, 0.5, 6.375, 0.625], "texture": "#0"}
			}
		},
		{
			"from": [3.04289, 14.96447, 14.12132],
			"to": [13.04289, 16.96447, 15.12132],
			"rotation": {"angle": 0, "axis": "y", "origin": [8.04289, 7.96447, 8.12132]},
			"faces": {
				"north": {"uv": [5.5, 4.25, 6.75, 4.5], "texture": "#0"},
				"east": {"uv": [4.125, 6.5, 4.25, 6.75], "texture": "#0"},
				"south": {"uv": [5.5, 4.5, 6.75, 4.75], "texture": "#0"},
				"west": {"uv": [4.25, 6.5, 4.375, 6.75], "texture": "#0"},
				"up": {"uv": [7.625, 0.75, 6.375, 0.625], "texture": "#0"},
				"down": {"uv": [7.625, 0.75, 6.375, 0.875], "texture": "#0"}
			}
		},
		{
			"from": [14.16421, 14.96447, 3],
			"to": [15.16421, 16.96447, 13],
			"rotation": {"angle": 0, "axis": "y", "origin": [8.16421, 7.96447, 8]},
			"faces": {
				"north": {"uv": [4.375, 6.5, 4.5, 6.75], "texture": "#0"},
				"east": {"uv": [5.5, 4.75, 6.75, 5], "texture": "#0"},
				"south": {"uv": [4.5, 6.5, 4.625, 6.75], "texture": "#0"},
				"west": {"uv": [0, 5.625, 1.25, 5.875], "texture": "#0"},
				"up": {"uv": [1.875, 7.625, 1.75, 6.375], "texture": "#0"},
				"down": {"uv": [2, 6.375, 1.875, 7.625], "texture": "#0"}
			}
		},
		{
			"from": [0.92157, 14.96447, 3],
			"to": [1.92157, 16.96447, 13],
			"rotation": {"angle": 0, "axis": "y", "origin": [7.92157, 7.96447, 8]},
			"faces": {
				"north": {"uv": [4.625, 6.5, 4.75, 6.75], "texture": "#0"},
				"east": {"uv": [3, 5.75, 4.25, 6], "texture": "#0"},
				"south": {"uv": [4.75, 6.5, 4.875, 6.75], "texture": "#0"},
				"west": {"uv": [4.25, 5.75, 5.5, 6], "texture": "#0"},
				"up": {"uv": [2.125, 7.625, 2, 6.375], "texture": "#0"},
				"down": {"uv": [2.25, 6.375, 2.125, 7.625], "texture": "#0"}
			}
		},
		{
			"from": [14.16421, 2.20711, 3],
			"to": [15.16421, 4.20711, 13],
			"rotation": {"angle": 0, "axis": "y", "origin": [8.16421, 7.95711, 8]},
			"faces": {
				"north": {"uv": [4.875, 6.5, 5, 6.75], "texture": "#0"},
				"east": {"uv": [5.5, 5.75, 6.75, 6], "texture": "#0"},
				"south": {"uv": [5, 6.5, 5.125, 6.75], "texture": "#0"},
				"west": {"uv": [0, 5.875, 1.25, 6.125], "texture": "#0"},
				"up": {"uv": [2.375, 7.625, 2.25, 6.375], "texture": "#0"},
				"down": {"uv": [2.5, 6.375, 2.375, 7.625], "texture": "#0"}
			}
		},
		{
			"from": [0.92157, 2.20711, 3],
			"to": [1.92157, 4.20711, 13],
			"rotation": {"angle": 0, "axis": "y", "origin": [7.92157, 7.95711, 8]},
			"faces": {
				"north": {"uv": [5.125, 6.5, 5.25, 6.75], "texture": "#0"},
				"east": {"uv": [5.875, 2.625, 7.125, 2.875], "texture": "#0"},
				"south": {"uv": [5.25, 6.5, 5.375, 6.75], "texture": "#0"},
				"west": {"uv": [3, 6, 4.25, 6.25], "texture": "#0"},
				"up": {"uv": [6.5, 2.125, 6.375, 0.875], "texture": "#0"},
				"down": {"uv": [0.625, 6.5, 0.5, 7.75], "texture": "#0"}
			}
		},
		{
			"from": [3.04289, 2.20711, 0.87868],
			"to": [13.04289, 4.20711, 1.87868],
			"rotation": {"angle": 0, "axis": "y", "origin": [8.04289, 7.95711, 7.87868]},
			"faces": {
				"north": {"uv": [4.25, 6, 5.5, 6.25], "texture": "#0"},
				"east": {"uv": [5.375, 6.5, 5.5, 6.75], "texture": "#0"},
				"south": {"uv": [5.5, 6, 6.75, 6.25], "texture": "#0"},
				"west": {"uv": [5.5, 6.5, 5.625, 6.75], "texture": "#0"},
				"up": {"uv": [7.625, 2.25, 6.375, 2.125], "texture": "#0"},
				"down": {"uv": [7.625, 2.25, 6.375, 2.375], "texture": "#0"}
			}
		},
		{
			"from": [3.04289, 2.20711, 14.12132],
			"to": [13.04289, 4.20711, 15.12132],
			"rotation": {"angle": 0, "axis": "y", "origin": [8.04289, 7.95711, 8.12132]},
			"faces": {
				"north": {"uv": [0, 6.125, 1.25, 6.375], "texture": "#0"},
				"east": {"uv": [5.625, 6.5, 5.75, 6.75], "texture": "#0"},
				"south": {"uv": [1.25, 6.125, 2.5, 6.375], "texture": "#0"},
				"west": {"uv": [5.75, 6.5, 5.875, 6.75], "texture": "#0"},
				"up": {"uv": [7.625, 2.5, 6.375, 2.375], "texture": "#0"},
				"down": {"uv": [7.625, 2.5, 6.375, 2.625], "texture": "#0"}
			}
		},
		{
			"from": [4.5, 1.25, 4.5],
			"to": [11.5, 4.25, 11.5],
			"faces": {
				"north": {"uv": [4.625, 3, 5.5, 3.375], "texture": "#0"},
				"east": {"uv": [3.625, 5, 4.5, 5.375], "texture": "#0"},
				"south": {"uv": [4.5, 5, 5.375, 5.375], "texture": "#0"},
				"west": {"uv": [3.625, 5.375, 4.5, 5.75], "texture": "#0"},
				"up": {"uv": [3.375, 3.375, 2.5, 2.5], "texture": "#0"},
				"down": {"uv": [3.375, 0, 2.5, 0.875], "texture": "#0"}
			}
		},
		{
			"from": [4.5, 5.5, 4.5],
			"to": [11.5, 8.5, 11.5],
			"faces": {
				"north": {"uv": [4.5, 5.375, 5.375, 5.75], "texture": "#0"},
				"east": {"uv": [5.375, 5.375, 6.25, 5.75], "texture": "#0"},
				"south": {"uv": [5.375, 5, 6.25, 5.375], "texture": "#0"},
				"west": {"uv": [5.5, 0, 6.375, 0.375], "texture": "#0"},
				"up": {"uv": [3.375, 1.75, 2.5, 0.875], "texture": "#0"},
				"down": {"uv": [3.375, 3.375, 2.5, 4.25], "texture": "#0"}
			}
		},
		{
			"from": [4.5, 9.75, 4.5],
			"to": [11.5, 12.75, 11.5],
			"faces": {
				"north": {"uv": [5.5, 0.375, 6.375, 0.75], "texture": "#0"},
				"east": {"uv": [5.5, 0.75, 6.375, 1.125], "texture": "#0"},
				"south": {"uv": [5.5, 1.125, 6.375, 1.5], "texture": "#0"},
				"west": {"uv": [5.5, 1.5, 6.375, 1.875], "texture": "#0"},
				"up": {"uv": [4.25, 4.25, 3.375, 3.375], "texture": "#0"},
				"down": {"uv": [4.25, 0, 3.375, 0.875], "texture": "#0"}
			}
		},
		{
			"from": [4.5, 14, 4.5],
			"to": [11.5, 17, 11.5],
			"faces": {
				"north": {"uv": [5.5, 1.875, 6.375, 2.25], "texture": "#0"},
				"east": {"uv": [5.5, 2.25, 6.375, 2.625], "texture": "#0"},
				"south": {"uv": [5.5, 3, 6.375, 3.375], "texture": "#0"},
				"west": {"uv": [5.5, 3.375, 6.375, 3.75], "texture": "#0"},
				"up": {"uv": [4.25, 1.75, 3.375, 0.875], "texture": "#0"},
				"down": {"uv": [4.25, 1.75, 3.375, 2.625], "texture": "#0"}
			}
		},
		{
			"from": [5.5, 4, 5.5],
			"to": [10.5, 14, 10.5],
			"faces": {
				"north": {"uv": [0, 2.5, 0.625, 3.75], "texture": "#0"},
				"east": {"uv": [0.625, 2.5, 1.25, 3.75], "texture": "#0"},
				"south": {"uv": [1.25, 2.5, 1.875, 3.75], "texture": "#0"},
				"west": {"uv": [1.875, 2.5, 2.5, 3.75], "texture": "#0"},
				"up": {"uv": [3.125, 2.375, 2.5, 1.75], "texture": "#0"},
				"down": {"uv": [3.625, 5, 3, 5.625], "texture": "#0"}
			}
		}
	],
	"display": {
		"thirdperson_righthand": {
			"rotation": [0, 45, 0],
			"translation": [0, 0, -3.25],
			"scale": [0.4, 0.4, 0.4]
		},
		"thirdperson_lefthand": {
			"rotation": [0, 45, 0],
			"translation": [0, 0, -3.25],
			"scale": [0.4, 0.4, 0.4]
		},
		"firstperson_righthand": {
			"rotation": [0, 45, 0],
			"translation": [3.25, 0, -3],
			"scale": [0.45, 0.45, 0.3]
		},
		"firstperson_lefthand": {
			"rotation": [0, 45, 0],
			"translation": [3.25, 0, -3],
			"scale": [0.45, 0.45, 0.3]
		},
		"ground": {
			"translation": [0, 4.25, 0],
			"scale": [0.3, 0.3, 0.3]
		},
		"gui": {
			"rotation": [30, 225, 0],
			"translation": [0, -0.5, 0],
			"scale": [0.625, 0.625, 0.625]
		},
		"head": {
			"translation": [0, 11.75, 0],
			"scale": [0.6, 0.6, 0.6]
		},
		"fixed": {
			"translation": [0, -1.25, -1.5]
		}
	},
	"groups": [
		{
			"name": "arton_capacitor",
			"origin": [8, 8, 8],
			"color": 0,
			"children": [
				{
					"name": "frame",
					"origin": [8, 8, 8],
					"color": 0,
					"children": [0, 1, 2, 3, 4, 5, 6, 7, 8, 9, 10, 11, 12, 13, 14, 15, 16, 17, 18, 19, 20, 21]
				},
				{
					"name": "core",
					"origin": [8, 8, 8],
					"color": 0,
					"children": [22, 23, 24, 25, 26]
				}
			]
		}
	]
}