{
	"credit": "Made with Blockbench",
	"textures": {
		"0": "tardis:block/monitors/eye",
		"particle": "tardis:block/monitors/eye"
	},
	"elements": [
		{
			"from": [0, 3, 15.1],
			"to": [16, 13, 15.1],
			"faces": {
				"north": {"uv": [0.125, 0.125, 2.125, 1.375], "texture": "#0"},
				"east": {"uv": [0, 0, 0, 1.25], "texture": "#0"},
				"south": {"uv": [1.75, 0.125, 3.75, 1.375], "texture": "#0"},
				"west": {"uv": [2, 0, 2, 1.25], "texture": "#0"},
				"up": {"uv": [2, 0, 0, 0], "texture": "#0"},
				"down": {"uv": [4, 0, 2, 0], "texture": "#0"}
			}
		},
		{
			"from": [0, 13.2, 15],
			"to": [16, 15, 16],
			"faces": {
				"north": {"uv": [0.75, 2.125, 2.75, 2.25], "texture": "#0"},
				"east": {"uv": [1.5, 2, 1.625, 2.125], "texture": "#0"},
				"south": {"uv": [0.75, 2.125, 2.75, 2.25], "texture": "#0"},
				"west": {"uv": [2.125, 2.125, 2.25, 2.25], "texture": "#0"},
				"up": {"uv": [2.875, 2.125, 0.875, 2], "texture": "#0"},
				"down": {"uv": [2.625, 2.25, 0.625, 2.375], "texture": "#0"}
			}
		},
		{
			"from": [-7.8, 7.85, 15],
			"to": [-6, 13.85, 16],
			"rotation": {"angle": -45, "axis": "z", "origin": [-2.5, 5, 15]},
			"faces": {
				"north": {"uv": [0.75, 2.125, 2.75, 2.25], "texture": "#0"},
				"east": {"uv": [1.5, 2, 1.625, 2.125], "texture": "#0"},
				"south": {"uv": [0.75, 2.125, 2.75, 2.25], "texture": "#0"},
				"west": {"uv": [2.125, 2.125, 2.25, 2.25], "texture": "#0"},
				"up": {"uv": [2.875, 2.125, 0.875, 2], "texture": "#0"},
				"down": {"uv": [2.625, 2.25, 0.625, 2.375], "texture": "#0"}
			}
		},
		{
			"from": [15.85, -7, 15],
			"to": [17.65, -1, 16],
			"rotation": {"angle": 45, "axis": "z", "origin": [-2.5, 5, 15]},
			"faces": {
				"north": {"uv": [0.75, 2.125, 2.75, 2.25], "texture": "#0"},
				"east": {"uv": [1.5, 2, 1.625, 2.125], "texture": "#0"},
				"south": {"uv": [0.75, 2.125, 2.75, 2.25], "texture": "#0"},
				"west": {"uv": [2.125, 2.125, 2.25, 2.25], "texture": "#0"},
				"up": {"uv": [2.875, 2.125, 0.875, 2], "texture": "#0"},
				"down": {"uv": [2.625, 2.25, 0.625, 2.375], "texture": "#0"}
			}
		},
		{
			"from": [-6.15, 9, 15],
			"to": [-2.15, 11, 16],
			"faces": {
				"north": {"uv": [0.75, 2.125, 2.75, 2.25], "texture": "#0"},
				"east": {"uv": [1.5, 2, 1.625, 2.125], "texture": "#0"},
				"south": {"uv": [0.75, 2.125, 2.75, 2.25], "texture": "#0"},
				"west": {"uv": [2.125, 2.125, 2.25, 2.25], "texture": "#0"},
				"up": {"uv": [2.875, 2.125, 0.875, 2], "texture": "#0"},
				"down": {"uv": [2.625, 2.25, 0.625, 2.375], "texture": "#0"}
			}
		},
		{
			"from": [18.15, 9, 15],
			"to": [22.15, 11, 16],
			"faces": {
				"north": {"uv": [0.75, 2.125, 2.75, 2.25], "texture": "#0"},
				"east": {"uv": [1.5, 2, 1.625, 2.125], "texture": "#0"},
				"south": {"uv": [0.75, 2.125, 2.75, 2.25], "texture": "#0"},
				"west": {"uv": [2.125, 2.125, 2.25, 2.25], "texture": "#0"},
				"up": {"uv": [2.875, 2.125, 0.875, 2], "texture": "#0"},
				"down": {"uv": [2.625, 2.25, 0.625, 2.375], "texture": "#0"}
			}
		},
		{
			"from": [0, 1, 15],
			"to": [16, 2.8, 16],
			"faces": {
				"north": {"uv": [0.75, 2.125, 2.75, 2.25], "texture": "#0"},
				"east": {"uv": [1.5, 2, 1.625, 2.125], "texture": "#0"},
				"south": {"uv": [0.75, 2.125, 2.75, 2.25], "texture": "#0"},
				"west": {"uv": [2.125, 2.125, 2.25, 2.25], "texture": "#0"},
				"up": {"uv": [2.875, 2.125, 0.875, 2], "texture": "#0"},
				"down": {"uv": [2.625, 2.25, 0.625, 2.375], "texture": "#0"}
			}
		},
		{
			"from": [11.6, 15.25, 15],
			"to": [13.4, 21.25, 16],
			"rotation": {"angle": -45, "axis": "z", "origin": [-2.5, 5, 15]},
			"faces": {
				"north": {"uv": [0.75, 2.125, 2.75, 2.25], "texture": "#0"},
				"east": {"uv": [1.5, 2, 1.625, 2.125], "texture": "#0"},
				"south": {"uv": [0.75, 2.125, 2.75, 2.25], "texture": "#0"},
				"west": {"uv": [2.125, 2.125, 2.25, 2.25], "texture": "#0"},
				"up": {"uv": [2.875, 2.125, 0.875, 2], "texture": "#0"},
				"down": {"uv": [2.625, 2.25, 0.625, 2.375], "texture": "#0"}
			}
		},
		{
			"from": [-3.55, 0.4, 15],
			"to": [-1.75, 6.4, 16],
			"rotation": {"angle": 45, "axis": "z", "origin": [-2.5, 5, 15]},
			"faces": {
				"north": {"uv": [0.75, 2.125, 2.75, 2.25], "texture": "#0"},
				"east": {"uv": [1.5, 2, 1.625, 2.125], "texture": "#0"},
				"south": {"uv": [0.75, 2.125, 2.75, 2.25], "texture": "#0"},
				"west": {"uv": [2.125, 2.125, 2.25, 2.25], "texture": "#0"},
				"up": {"uv": [2.875, 2.125, 0.875, 2], "texture": "#0"},
				"down": {"uv": [2.625, 2.25, 0.625, 2.375], "texture": "#0"}
			}
		},
		{
			"from": [-6.15, 5, 15],
			"to": [-2.15, 7, 16],
			"faces": {
				"north": {"uv": [0.75, 2.125, 2.75, 2.25], "texture": "#0"},
				"east": {"uv": [1.5, 2, 1.625, 2.125], "texture": "#0"},
				"south": {"uv": [0.75, 2.125, 2.75, 2.25], "texture": "#0"},
				"west": {"uv": [2.125, 2.125, 2.25, 2.25], "texture": "#0"},
				"up": {"uv": [2.875, 2.125, 0.875, 2], "texture": "#0"},
				"down": {"uv": [2.625, 2.25, 0.625, 2.375], "texture": "#0"}
			}
		},
		{
			"from": [18.15, 5, 15],
			"to": [22.15, 7, 16],
			"faces": {
				"north": {"uv": [0.75, 2.125, 2.75, 2.25], "texture": "#0"},
				"east": {"uv": [1.5, 2, 1.625, 2.125], "texture": "#0"},
				"south": {"uv": [0.75, 2.125, 2.75, 2.25], "texture": "#0"},
				"west": {"uv": [2.125, 2.125, 2.25, 2.25], "texture": "#0"},
				"up": {"uv": [2.875, 2.125, 0.875, 2], "texture": "#0"},
				"down": {"uv": [2.625, 2.25, 0.625, 2.375], "texture": "#0"}
			}
		},
		{
			"from": [0.2, 13, 14.4],
			"to": [15.8, 14.8, 15.4],
			"faces": {
				"north": {"uv": [1, 4, 2.875, 4.125], "texture": "#0"},
				"east": {"uv": [2.625, 3.75, 2.75, 3.875], "texture": "#0"},
				"south": {"uv": [1.625, 3.75, 3.5, 3.875], "texture": "#0"},
				"west": {"uv": [3.125, 4, 3.25, 4.125], "texture": "#0"},
				"up": {"uv": [3.625, 3.875, 1.75, 3.75], "texture": "#0"},
				"down": {"uv": [3, 3.625, 1.125, 3.75], "texture": "#0"}
			}
		},
		{
			"from": [-7.5, 7.85, 14.4],
			"to": [-5.8, 13.85, 15.4],
			"rotation": {"angle": -45, "axis": "z", "origin": [-2.5, 5, 14.4]},
			"faces": {
				"north": {"uv": [1, 4, 2.875, 4.125], "texture": "#0"},
				"east": {"uv": [2.625, 3.75, 2.75, 3.875], "texture": "#0"},
				"south": {"uv": [1.625, 3.75, 3.5, 3.875], "texture": "#0"},
				"west": {"uv": [3.125, 4, 3.25, 4.125], "texture": "#0"},
				"up": {"uv": [3.625, 3.875, 1.75, 3.75], "texture": "#0"},
				"down": {"uv": [0.375, 6.25, 0.25, 6.375], "texture": "#0"}
			}
		},
		{
			"from": [15.65, -7, 14.4],
			"to": [17.35, -1, 15.4],
			"rotation": {"angle": 45, "axis": "z", "origin": [-2.5, 5, 14.4]},
			"faces": {
				"north": {"uv": [1, 4, 2.875, 4.125], "texture": "#0"},
				"east": {"uv": [2.625, 3.75, 2.75, 3.875], "texture": "#0"},
				"south": {"uv": [1.625, 3.75, 3.5, 3.875], "texture": "#0"},
				"west": {"uv": [3.125, 4, 3.25, 4.125], "texture": "#0"},
				"up": {"uv": [3.625, 3.875, 1.75, 3.75], "texture": "#0"},
				"down": {"uv": [3.625, 5.375, 3.5, 5.5], "texture": "#0"}
			}
		},
		{
			"from": [-5.95, 9.2, 14.4],
			"to": [-2.25, 10.7, 15.4],
			"faces": {
				"north": {"uv": [1, 4, 2.875, 4.125], "texture": "#0"},
				"east": {"uv": [2.625, 3.75, 2.75, 3.875], "texture": "#0"},
				"south": {"uv": [1.625, 3.75, 3.5, 3.875], "texture": "#0"},
				"west": {"uv": [3.125, 4, 3.25, 4.125], "texture": "#0"},
				"up": {"uv": [3.625, 3.875, 1.75, 3.75], "texture": "#0"},
				"down": {"uv": [2.625, 6.5, 2.25, 6.625], "texture": "#0"}
			}
		},
		{
			"from": [0.2, 1.2, 14.4],
			"to": [15.8, 3, 15.4],
			"faces": {
				"north": {"uv": [1, 4, 2.875, 4.125], "texture": "#0"},
				"east": {"uv": [2.625, 3.75, 2.75, 3.875], "texture": "#0"},
				"south": {"uv": [1.625, 3.75, 3.5, 3.875], "texture": "#0"},
				"west": {"uv": [3.125, 4, 3.25, 4.125], "texture": "#0"},
				"up": {"uv": [3.625, 3.875, 1.75, 3.75], "texture": "#0"},
				"down": {"uv": [3.875, 1.625, 2, 1.75], "texture": "#0"}
			}
		},
		{
			"from": [11.4, 15.25, 14.4],
			"to": [13.1, 21.25, 15.4],
			"rotation": {"angle": -45, "axis": "z", "origin": [-2.5, 5, 14.4]},
			"faces": {
				"north": {"uv": [1, 4, 2.875, 4.125], "texture": "#0"},
				"east": {"uv": [2.625, 3.75, 2.75, 3.875], "texture": "#0"},
				"south": {"uv": [1.625, 3.75, 3.5, 3.875], "texture": "#0"},
				"west": {"uv": [3.125, 4, 3.25, 4.125], "texture": "#0"},
				"up": {"uv": [3.625, 3.875, 1.75, 3.75], "texture": "#0"},
				"down": {"uv": [2.625, 5.375, 2.5, 5.5], "texture": "#0"}
			}
		},
		{
			"from": [-3.25, 0.4, 14.4],
			"to": [-1.55, 6.4, 15.4],
			"rotation": {"angle": 45, "axis": "z", "origin": [-2.5, 5, 14.4]},
			"faces": {
				"north": {"uv": [1, 4, 2.875, 4.125], "texture": "#0"},
				"east": {"uv": [2.625, 3.75, 2.75, 3.875], "texture": "#0"},
				"south": {"uv": [1.625, 3.75, 3.5, 3.875], "texture": "#0"},
				"west": {"uv": [3.125, 4, 3.25, 4.125], "texture": "#0"},
				"up": {"uv": [3.625, 3.875, 1.75, 3.75], "texture": "#0"},
				"down": {"uv": [1.375, 4.125, 1.25, 4.25], "texture": "#0"}
			}
		},
		{
			"from": [-5.95, 5.3, 14.4],
			"to": [-2.25, 6.8, 15.4],
			"faces": {
				"north": {"uv": [1, 4, 2.875, 4.125], "texture": "#0"},
				"east": {"uv": [2.625, 3.75, 2.75, 3.875], "texture": "#0"},
				"south": {"uv": [1.625, 3.75, 3.5, 3.875], "texture": "#0"},
				"west": {"uv": [3.125, 4, 3.25, 4.125], "texture": "#0"},
				"up": {"uv": [3.625, 3.875, 1.75, 3.75], "texture": "#0"},
				"down": {"uv": [3.625, 6.25, 3.25, 6.375], "texture": "#0"}
			}
		},
		{
			"from": [18.2, 5.3, 14.4],
			"to": [21.9, 6.8, 15.4],
			"faces": {
				"north": {"uv": [1, 4, 2.875, 4.125], "texture": "#0"},
				"east": {"uv": [2.625, 3.75, 2.75, 3.875], "texture": "#0"},
				"south": {"uv": [1.625, 3.75, 3.5, 3.875], "texture": "#0"},
				"west": {"uv": [3.125, 4, 3.25, 4.125], "texture": "#0"},
				"up": {"uv": [3.625, 3.875, 1.75, 3.75], "texture": "#0"},
				"down": {"uv": [2.625, 6.75, 2.25, 6.875], "texture": "#0"}
			}
		},
		{
			"from": [18.2, 9.2, 14.4],
			"to": [21.9, 10.7, 15.4],
			"faces": {
				"north": {"uv": [1, 4, 2.875, 4.125], "texture": "#0"},
				"east": {"uv": [2.625, 3.75, 2.75, 3.875], "texture": "#0"},
				"south": {"uv": [1.625, 3.75, 3.5, 3.875], "texture": "#0"},
				"west": {"uv": [3.125, 4, 3.25, 4.125], "texture": "#0"},
				"up": {"uv": [3.625, 3.875, 1.75, 3.75], "texture": "#0"},
				"down": {"uv": [2.625, 6.25, 2.25, 6.375], "texture": "#0"}
			}
		},
		{
			"from": [12.6, 1.4, 14.3],
			"to": [12.85, 2.8, 14.8],
			"faces": {
				"north": {"uv": [2.625, 0.875, 2.625, 1], "texture": "#0"},
				"east": {"uv": [5.75, 1, 5.75, 1.125], "texture": "#0"},
				"south": {"uv": [5, 7.375, 5, 7.5], "texture": "#0"},
				"west": {"uv": [5.625, 1.125, 5.625, 1.25], "texture": "#0"},
				"up": {"uv": [6.125, 0.625, 6.125, 0.625], "texture": "#0"},
				"down": {"uv": [6, 1.125, 6, 1.125], "texture": "#0"}
			}
		},
		{
			"from": [12.1, 1.4, 14.3],
			"to": [12.35, 2.8, 14.8],
			"faces": {
				"north": {"uv": [2.625, 0.875, 2.625, 1], "texture": "#0"},
				"east": {"uv": [5.75, 1, 5.75, 1.125], "texture": "#0"},
				"south": {"uv": [4, 7.125, 4, 7.25], "texture": "#0"},
				"west": {"uv": [5.625, 1.125, 5.625, 1.25], "texture": "#0"},
				"up": {"uv": [6.125, 0.625, 6.125, 0.625], "texture": "#0"},
				"down": {"uv": [6, 1.125, 6, 1.125], "texture": "#0"}
			}
		},
		{
			"from": [11.6, 1.4, 14.3],
			"to": [11.85, 2.8, 14.8],
			"faces": {
				"north": {"uv": [2.625, 0.875, 2.625, 1], "texture": "#0"},
				"east": {"uv": [5.75, 1, 5.75, 1.125], "texture": "#0"},
				"south": {"uv": [5, 7.125, 5, 7.25], "texture": "#0"},
				"west": {"uv": [5.625, 1.125, 5.625, 1.25], "texture": "#0"},
				"up": {"uv": [6.125, 0.625, 6.125, 0.625], "texture": "#0"},
				"down": {"uv": [6, 1.125, 6, 1.125], "texture": "#0"}
			}
		},
		{
			"from": [3.85, 1.4, 14.3],
			"to": [4.1, 2.8, 14.8],
			"faces": {
				"north": {"uv": [2.625, 0.875, 2.625, 1], "texture": "#0"},
				"east": {"uv": [5.75, 1, 5.75, 1.125], "texture": "#0"},
				"south": {"uv": [4.5, 7.375, 4.5, 7.5], "texture": "#0"},
				"west": {"uv": [5.625, 1.125, 5.625, 1.25], "texture": "#0"},
				"up": {"uv": [6.125, 0.625, 6.125, 0.625], "texture": "#0"},
				"down": {"uv": [6, 1.125, 6, 1.125], "texture": "#0"}
			}
		},
		{
			"from": [3.35, 1.4, 14.3],
			"to": [3.6, 2.8, 14.8],
			"faces": {
				"north": {"uv": [2.625, 0.875, 2.625, 1], "texture": "#0"},
				"east": {"uv": [5.75, 1, 5.75, 1.125], "texture": "#0"},
				"south": {"uv": [4.5, 7.125, 4.5, 7.25], "texture": "#0"},
				"west": {"uv": [5.625, 1.125, 5.625, 1.25], "texture": "#0"},
				"up": {"uv": [6.125, 0.625, 6.125, 0.625], "texture": "#0"},
				"down": {"uv": [6, 1.125, 6, 1.125], "texture": "#0"}
			}
		},
		{
			"from": [4.35, 1.4, 14.3],
			"to": [4.6, 2.8, 14.8],
			"faces": {
				"north": {"uv": [2.625, 0.875, 2.625, 1], "texture": "#0"},
				"east": {"uv": [5.75, 1, 5.75, 1.125], "texture": "#0"},
				"south": {"uv": [4, 7.375, 4, 7.5], "texture": "#0"},
				"west": {"uv": [5.625, 1.125, 5.625, 1.25], "texture": "#0"},
				"up": {"uv": [6.125, 0.625, 6.125, 0.625], "texture": "#0"},
				"down": {"uv": [6, 1.125, 6, 1.125], "texture": "#0"}
			}
		},
		{
			"from": [4.85, 1.4, 14.3],
			"to": [11.35, 2.8, 14.8],
			"faces": {
				"north": {"uv": [5.75, 0.625, 6.5, 0.75], "texture": "#0"},
				"east": {"uv": [5.5, 0.875, 5.5, 1], "texture": "#0"},
				"south": {"uv": [6.25, 1.625, 7, 1.75], "texture": "#0"},
				"west": {"uv": [5.875, 0.875, 5.875, 1], "texture": "#0"},
				"up": {"uv": [6.375, 0.5, 5.625, 0.5], "texture": "#0"},
				"down": {"uv": [6.875, 0.625, 6.125, 0.625], "texture": "#0"}
			}
		},
		{
			"from": [17, 7.5, 14.5],
			"to": [21.1, 7.7, 15.9],
			"faces": {
				"north": {"uv": [1.25, 3.375, 1.25, 4.5], "texture": "#0"},
				"east": {"uv": [2, 3.875, 2.125, 3.875], "texture": "#0"},
				"south": {"uv": [1.5, 3.75, 2, 3.75], "texture": "#0"},
				"west": {"uv": [2.125, 3.625, 2.25, 3.625], "texture": "#0"},
				"up": {"uv": [2.5, 3.875, 2, 3.75], "texture": "#0"},
				"down": {"uv": [2.625, 3.625, 2.125, 3.75], "texture": "#0"}
			}
		},
		{
			"from": [17, 8.2, 14.5],
			"to": [21.1, 8.4, 15.9],
			"faces": {
				"north": {"uv": [1.25, 3.375, 1.25, 4.5], "texture": "#0"},
				"east": {"uv": [2, 3.875, 2.125, 3.875], "texture": "#0"},
				"south": {"uv": [1.5, 3.75, 2, 3.75], "texture": "#0"},
				"west": {"uv": [2.125, 3.625, 2.25, 3.625], "texture": "#0"},
				"up": {"uv": [2.5, 3.875, 2, 3.75], "texture": "#0"},
				"down": {"uv": [2.625, 3.625, 2.125, 3.75], "texture": "#0"}
			}
		},
		{
			"from": [16.8, 3.4, 14.5],
			"to": [17, 12.6, 15.9],
			"faces": {
				"north": {"uv": [1.25, 3.375, 1.25, 4.5], "texture": "#0"},
				"east": {"uv": [2, 3.875, 2.125, 3.875], "texture": "#0"},
				"south": {"uv": [1.5, 3.75, 2, 3.75], "texture": "#0"},
				"west": {"uv": [2.125, 3.625, 2.25, 3.625], "texture": "#0"},
				"up": {"uv": [2.5, 3.875, 2, 3.75], "texture": "#0"},
				"down": {"uv": [2.625, 3.625, 2.125, 3.75], "texture": "#0"}
			}
		},
		{
			"from": [16.4, 3.4, 14.5],
			"to": [16.6, 12.6, 15.9],
			"faces": {
				"north": {"uv": [1.25, 3.375, 1.25, 4.5], "texture": "#0"},
				"east": {"uv": [2, 3.875, 2.125, 3.875], "texture": "#0"},
				"south": {"uv": [1.5, 3.75, 2, 3.75], "texture": "#0"},
				"west": {"uv": [2.125, 3.625, 2.25, 3.625], "texture": "#0"},
				"up": {"uv": [2.5, 3.875, 2, 3.75], "texture": "#0"},
				"down": {"uv": [2.625, 3.625, 2.125, 3.75], "texture": "#0"}
			}
		},
		{
			"from": [-5.1, 7.5, 14.5],
			"to": [-1, 7.7, 15.9],
			"faces": {
				"north": {"uv": [1.25, 3.375, 1.25, 4.5], "texture": "#0"},
				"east": {"uv": [2, 3.875, 2.125, 3.875], "texture": "#0"},
				"south": {"uv": [1.5, 3.75, 2, 3.75], "texture": "#0"},
				"west": {"uv": [2.125, 3.625, 2.25, 3.625], "texture": "#0"},
				"up": {"uv": [2.5, 3.875, 2, 3.75], "texture": "#0"},
				"down": {"uv": [2.625, 3.625, 2.125, 3.75], "texture": "#0"}
			}
		},
		{
			"from": [-5.1, 8.2, 14.5],
			"to": [-1, 8.4, 15.9],
			"faces": {
				"north": {"uv": [1.25, 3.375, 1.25, 4.5], "texture": "#0"},
				"east": {"uv": [2, 3.875, 2.125, 3.875], "texture": "#0"},
				"south": {"uv": [1.5, 3.75, 2, 3.75], "texture": "#0"},
				"west": {"uv": [2.125, 3.625, 2.25, 3.625], "texture": "#0"},
				"up": {"uv": [2.5, 3.875, 2, 3.75], "texture": "#0"},
				"down": {"uv": [2.625, 3.625, 2.125, 3.75], "texture": "#0"}
			}
		},
		{
			"from": [-0.6, 3.4, 14.5],
			"to": [-0.4, 12.6, 15.9],
			"faces": {
				"north": {"uv": [1.25, 3.375, 1.25, 4.5], "texture": "#0"},
				"east": {"uv": [2, 3.875, 2.125, 3.875], "texture": "#0"},
				"south": {"uv": [1.5, 3.75, 2, 3.75], "texture": "#0"},
				"west": {"uv": [2.125, 3.625, 2.25, 3.625], "texture": "#0"},
				"up": {"uv": [2.5, 3.875, 2, 3.75], "texture": "#0"},
				"down": {"uv": [2.625, 3.625, 2.125, 3.75], "texture": "#0"}
			}
		},
		{
			"from": [-1, 3.4, 14.5],
			"to": [-0.8, 12.6, 15.9],
			"faces": {
				"north": {"uv": [1.25, 3.375, 1.25, 4.5], "texture": "#0"},
				"east": {"uv": [2, 3.875, 2.125, 3.875], "texture": "#0"},
				"south": {"uv": [1.5, 3.75, 2, 3.75], "texture": "#0"},
				"west": {"uv": [2.125, 3.625, 2.25, 3.625], "texture": "#0"},
				"up": {"uv": [2.5, 3.875, 2, 3.75], "texture": "#0"},
				"down": {"uv": [2.625, 3.625, 2.125, 3.75], "texture": "#0"}
			}
		},
		{
			"from": [0, 2.4, 14.7],
			"to": [0.5, 6.4, 15.7],
			"faces": {
				"north": {"uv": [5.25, 0.625, 5.25, 1.125], "texture": "#0"},
				"east": {"uv": [5.25, 0.5, 5.375, 1], "texture": "#0"},
				"south": {"uv": [5.625, 0.25, 5.875, 1.25], "texture": "#0"},
				"west": {"uv": [5.125, 0.25, 5.25, 1.25], "texture": "#0"},
				"up": {"uv": [5.375, 0.75, 5.125, 0.625], "texture": "#0"},
				"down": {"uv": [5.75, 0.5, 5.5, 0.625], "texture": "#0"}
			}
		},
		{
			"from": [-2, 3.5, 14.7],
			"to": [0, 12.4, 15.7],
			"faces": {
				"north": {"uv": [5.25, 0.625, 5.25, 1.125], "texture": "#0"},
				"east": {"uv": [5.25, 0.5, 5.375, 1], "texture": "#0"},
				"south": {"uv": [5.625, 0.25, 5.875, 1.25], "texture": "#0"},
				"west": {"uv": [5.125, 0.25, 5.25, 1.25], "texture": "#0"},
				"up": {"uv": [5.375, 0.75, 5.125, 0.625], "texture": "#0"},
				"down": {"uv": [5.75, 0.5, 5.5, 0.625], "texture": "#0"}
			}
		},
		{
			"from": [18, 5.8, 15.2],
			"to": [21, 10.3, 15.7],
			"faces": {
				"north": {"uv": [5.25, 0.625, 5.25, 1.125], "texture": "#0"},
				"east": {"uv": [5.25, 0.5, 5.375, 1], "texture": "#0"},
				"south": {"uv": [5.625, 0.25, 5.875, 1.25], "texture": "#0"},
				"west": {"uv": [5.125, 0.25, 5.25, 1.25], "texture": "#0"},
				"up": {"uv": [5.375, 0.75, 5.125, 0.625], "texture": "#0"},
				"down": {"uv": [5.75, 0.5, 5.5, 0.625], "texture": "#0"}
			}
		},
		{
			"from": [16, 3.4, 14.7],
			"to": [18, 12.4, 15.7],
			"faces": {
				"north": {"uv": [5.25, 0.625, 5.25, 1.125], "texture": "#0"},
				"east": {"uv": [5.25, 0.5, 5.375, 1], "texture": "#0"},
				"south": {"uv": [5.625, 0.25, 5.875, 1.25], "texture": "#0"},
				"west": {"uv": [5.125, 0.25, 5.25, 1.25], "texture": "#0"},
				"up": {"uv": [5.375, 0.75, 5.125, 0.625], "texture": "#0"},
				"down": {"uv": [5.75, 0.5, 5.5, 0.625], "texture": "#0"}
			}
		},
		{
			"from": [-5, 5.7, 15.2],
			"to": [-2, 10.3, 15.7],
			"faces": {
				"north": {"uv": [5.25, 0.625, 5.25, 1.125], "texture": "#0"},
				"east": {"uv": [5.25, 0.5, 5.375, 1], "texture": "#0"},
				"south": {"uv": [5.625, 0.25, 5.875, 1.25], "texture": "#0"},
				"west": {"uv": [5.125, 0.25, 5.25, 1.25], "texture": "#0"},
				"up": {"uv": [5.375, 0.75, 5.125, 0.625], "texture": "#0"},
				"down": {"uv": [5.75, 0.5, 5.5, 0.625], "texture": "#0"}
			}
		},
		{
			"from": [-4.5, 5.7, 14.95],
			"to": [-2, 10.3, 15.2],
			"faces": {
				"north": {"uv": [5.25, 0.625, 5.25, 1.125], "texture": "#0"},
				"east": {"uv": [5.25, 0.5, 5.375, 1], "texture": "#0"},
				"south": {"uv": [5.625, 0.25, 5.875, 1.25], "texture": "#0"},
				"west": {"uv": [5.125, 0.25, 5.25, 1.25], "texture": "#0"},
				"up": {"uv": [5.375, 0.75, 5.125, 0.625], "texture": "#0"},
				"down": {"uv": [5.75, 0.5, 5.5, 0.625], "texture": "#0"}
			}
		},
		{
			"from": [18, 5.7, 14.95],
			"to": [20.5, 10.3, 15.2],
			"faces": {
				"north": {"uv": [5.25, 0.625, 5.25, 1.125], "texture": "#0"},
				"east": {"uv": [5.25, 0.5, 5.375, 1], "texture": "#0"},
				"south": {"uv": [5.625, 0.25, 5.875, 1.25], "texture": "#0"},
				"west": {"uv": [5.125, 0.25, 5.25, 1.25], "texture": "#0"},
				"up": {"uv": [5.375, 0.75, 5.125, 0.625], "texture": "#0"},
				"down": {"uv": [5.75, 0.5, 5.5, 0.625], "texture": "#0"}
			}
		},
		{
			"from": [15.5, 6.4, 14.7],
			"to": [16, 9.4, 15.7],
			"faces": {
				"north": {"uv": [5.25, 0.625, 5.25, 1.125], "texture": "#0"},
				"east": {"uv": [5.25, 0.5, 5.375, 1], "texture": "#0"},
				"south": {"uv": [5.625, 0.25, 5.875, 1.25], "texture": "#0"},
				"west": {"uv": [5.125, 0.25, 5.25, 1.25], "texture": "#0"},
				"up": {"uv": [5.375, 0.75, 5.125, 0.625], "texture": "#0"},
				"down": {"uv": [5.75, 0.5, 5.5, 0.625], "texture": "#0"}
			}
		},
		{
			"from": [0, 9.4, 14.7],
			"to": [0.5, 13.4, 15.7],
			"faces": {
				"north": {"uv": [5.25, 0.625, 5.25, 1.125], "texture": "#0"},
				"east": {"uv": [5.25, 0.5, 5.375, 1], "texture": "#0"},
				"south": {"uv": [5.625, 0.25, 5.875, 1.25], "texture": "#0"},
				"west": {"uv": [5.125, 0.25, 5.25, 1.25], "texture": "#0"},
				"up": {"uv": [5.375, 0.75, 5.125, 0.625], "texture": "#0"},
				"down": {"uv": [5.75, 0.5, 5.5, 0.625], "texture": "#0"}
			}
		}
	],
	"display": {
		"thirdperson_righthand": {
			"rotation": [75, 45, 0],
			"translation": [0, 2.5, 0],
			"scale": [0.375, 0.375, 0.375]
		},
		"thirdperson_lefthand": {
			"rotation": [75, 45, 0],
			"translation": [0, 2.5, 0],
			"scale": [0.375, 0.375, 0.375]
		},
		"firstperson_righthand": {
			"rotation": [0, 45, 0],
			"scale": [0.4, 0.4, 0.4]
		},
		"firstperson_lefthand": {
			"rotation": [0, 84, 0],
			"translation": [1.25, 0, 0],
			"scale": [0.4, 0.4, 0.4]
		},
		"ground": {
			"translation": [0, 3, 0],
			"scale": [0.25, 0.25, 0.25]
		},
		"gui": {
			"rotation": [30, 225, 0],
			"translation": [3, -1.75, 0],
			"scale": [0.625, 0.625, 0.625]
		},
		"head": {
			"rotation": [0, 180, 0],
			"translation": [0, 0.25, -0.25]
		},
		"fixed": {
			"translation": [0, 0, -4],
			"scale": [0.5, 0.5, 0.5]
		}
	},
	"groups": [
		{
			"name": "eye_monitor",
			"origin": [8, 8, 8],
			"children": [
				{
					"name": "screen",
					"origin": [8, 8, 8],
					"children": [0]
				},
				{
					"name": "lid",
					"origin": [8, 8, 8],
					"children": [1, 2, 3, 4, 5, 6, 7, 8, 9, 10]
				},
				{
					"name": "lid2",
					"origin": [8, 8, 8],
					"children": [11, 12, 13, 14, 15, 16, 17, 18, 19, 20]
				},
				{
					"name": "side_panels",
					"origin": [8, 8, 8],
					"children": [
						{
							"name": "lower_trim",
							"origin": [8, 8, 8],
							"children": [21, 22, 23, 24, 25, 26, 27]
						},
						{
							"name": "strips",
							"origin": [8, 8, 8],
							"children": [28, 29, 30, 31, 32, 33, 34, 35]
						},
						{
							"name": "screen_trim",
							"origin": [8, 8, 8],
							"children": [36, 37, 38, 39, 40, 41, 42, 43, 44]
						}
					]
				}
			]
		}
	]
}