{
  "type": "minecraft:crafting_shaped",
  "pattern": [
    " s ",
    " e ",
    " s "
  ],
  "key": {
    "e": {
      "item": "tardis:circuits"
    },
    "s": {
      "item": "minecraft:black_concrete"
    }
  },
  "result": {
    "item": "tardis:air_lock"
  }
}