{
	"type":"minecraft:crafting_shaped",
	"pattern":[
		"xix",
		"iai",
		"xix"
	],
	"key":{
		"a":{
			"item":"tardis:artron_battery"
		},
		"i":{
			"item":"minecraft:iron_ingot"
		},
		"x":{
			"item":"tardis:xion_crystal"
		}
	},
	"result":{
		"item":"tardis:artron_collector"
	}
}