{
  "type": "minecraft:crafting_shaped",
  "pattern": [
    " c ",
    "ehe",
    " r "
  ],
  "key": {
    "c":{
    	"item":"minecraft:chest"
    },
    "e":{
    	"item":"tardis:circuits"
    },
    "h":{
    	"item":"minecraft:hopper"
    },
    "r":{
    	"item":"minecraft:redstone"
    } 
  },
  "result": {
    "item": "tardis:item_access_panel"
  }
}