{
  "type": "normal",
  "text": "Change Exterior. This protocol allows you to change the appearance of the exterior shell. This also changes the appearance of the interior door to match the exterior!"
}