{
  "effects": "tardis:moon_sky_property",
  "ultrawarm": false,
  "natural": true,
  "ambient_light": 0.0,
  "has_skylight": false,
  "has_ceiling": false,
  "infiniburn": "minecraft:infiniburn_overworld",
  "logical_height" : 256,
  "has_raids" : false,
  "respawn_anchor_works": true,
  "bed_works" : true,
  "piglin_safe" : true,
  "coordinate_scale": 1.0
}